{
  "shell_port": 60481,
  "iopub_port": 47499,
  "stdin_port": 52935,
  "control_port": 46435,
  "hb_port": 37743,
  "ip": "127.0.0.1",
  "key": "4a0f21cd-e8bad443f8d2fa69d5cc05e1",
  "transport": "tcp",
  "signature_scheme": "hmac-sha256",
  "kernel_name": ""
}